<?xml version="1.0" encoding="UTF-8" standalone="no"?>
<!-- Created with Inkscape (http://www.inkscape.org/) -->

<svg
   xmlns:dc="http://purl.org/dc/elements/1.1/"
   xmlns:cc="http://creativecommons.org/ns#"
   xmlns:rdf="http://www.w3.org/1999/02/22-rdf-syntax-ns#"
   xmlns:svg="http://www.w3.org/2000/svg"
   xmlns="http://www.w3.org/2000/svg"
   xmlns:sodipodi="http://sodipodi.sourceforge.net/DTD/sodipodi-0.dtd"
   xmlns:inkscape="http://www.inkscape.org/namespaces/inkscape"
   width="124.34244mm"
   height="159.64479mm"
   viewBox="0 0 124.34244 159.64479"
   version="1.1"
   id="svg987"
   sodipodi:docname="j_connected_sum.svg"
   inkscape:version="0.92.5 (2060ec1f9f, 2020-04-08)">
  <defs
     id="defs981">
    <marker
       inkscape:isstock="true"
       style="overflow:visible"
       id="marker1578"
       refX="0"
       refY="0"
       orient="auto"
       inkscape:stockid="Arrow2Lend">
      <path
         transform="matrix(-1.1,0,0,-1.1,-1.1,0)"
         d="M 8.7185878,4.0337352 -2.2072895,0.01601326 8.7185884,-4.0017078 c -1.7454984,2.3720609 -1.7354408,5.6174519 -6e-7,8.035443 z"
         style="fill:#000000;fill-opacity:1;fill-rule:evenodd;stroke:#000000;stroke-width:0.625;stroke-linejoin:round;stroke-opacity:1"
         id="path1576"
         inkscape:connector-curvature="0" />
    </marker>
    <marker
       inkscape:stockid="Arrow1Lend"
       orient="auto"
       refY="0"
       refX="0"
       id="Arrow1Lend"
       style="overflow:visible"
       inkscape:isstock="true">
      <path
         id="path913"
         d="M 0,0 5,-5 -12.5,0 5,5 Z"
         style="fill:#000000;fill-opacity:1;fill-rule:evenodd;stroke:#000000;stroke-width:1.00000003pt;stroke-opacity:1"
         transform="matrix(-0.8,0,0,-0.8,-10,0)"
         inkscape:connector-curvature="0" />
    </marker>
    <marker
       inkscape:stockid="Arrow1Lstart"
       orient="auto"
       refY="0"
       refX="0"
       id="marker2581"
       style="overflow:visible"
       inkscape:isstock="true">
      <path
         id="path2579"
         d="M 0,0 5,-5 -12.5,0 5,5 Z"
         style="fill:#000000;fill-opacity:1;fill-rule:evenodd;stroke:#000000;stroke-width:1.00000003pt;stroke-opacity:1"
         transform="matrix(0.8,0,0,0.8,10,0)"
         inkscape:connector-curvature="0" />
    </marker>
    <marker
       inkscape:stockid="Arrow1Lstart"
       orient="auto"
       refY="0"
       refX="0"
       id="marker2547"
       style="overflow:visible"
       inkscape:isstock="true">
      <path
         id="path2545"
         d="M 0,0 5,-5 -12.5,0 5,5 Z"
         style="fill:#000000;fill-opacity:1;fill-rule:evenodd;stroke:#000000;stroke-width:1.00000003pt;stroke-opacity:1"
         transform="matrix(0.8,0,0,0.8,10,0)"
         inkscape:connector-curvature="0" />
    </marker>
    <marker
       inkscape:stockid="Arrow1Lstart"
       orient="auto"
       refY="0"
       refX="0"
       id="marker2501"
       style="overflow:visible"
       inkscape:isstock="true">
      <path
         id="path2499"
         d="M 0,0 5,-5 -12.5,0 5,5 Z"
         style="fill:#000000;fill-opacity:1;fill-rule:evenodd;stroke:#000000;stroke-width:1.00000003pt;stroke-opacity:1"
         transform="matrix(0.8,0,0,0.8,10,0)"
         inkscape:connector-curvature="0" />
    </marker>
    <marker
       inkscape:stockid="Arrow1Lstart"
       orient="auto"
       refY="0"
       refX="0"
       id="marker2467"
       style="overflow:visible"
       inkscape:isstock="true">
      <path
         id="path2465"
         d="M 0,0 5,-5 -12.5,0 5,5 Z"
         style="fill:#000000;fill-opacity:1;fill-rule:evenodd;stroke:#000000;stroke-width:1.00000003pt;stroke-opacity:1"
         transform="matrix(0.8,0,0,0.8,10,0)"
         inkscape:connector-curvature="0" />
    </marker>
  </defs>
  <sodipodi:namedview
     id="base"
     pagecolor="#ffffff"
     bordercolor="#666666"
     borderopacity="1.0"
     inkscape:pageopacity="0.0"
     inkscape:pageshadow="2"
     inkscape:zoom="1.4142136"
     inkscape:cx="282.21709"
     inkscape:cy="236.65753"
     inkscape:document-units="mm"
     inkscape:current-layer="layer1"
     showgrid="false"
     inkscape:snap-bbox="true"
     inkscape:bbox-nodes="true"
     inkscape:object-paths="true"
     inkscape:snap-intersection-paths="true"
     inkscape:snap-smooth-nodes="false"
     fit-margin-top="0"
     fit-margin-left="0"
     fit-margin-right="0"
     fit-margin-bottom="0"
     inkscape:window-width="1920"
     inkscape:window-height="1017"
     inkscape:window-x="0"
     inkscape:window-y="1080"
     inkscape:window-maximized="1"
     inkscape:snap-global="false"
     inkscape:snap-object-midpoints="true"
     inkscape:snap-bbox-midpoints="true"
     inkscape:object-nodes="true"
     inkscape:snap-nodes="true" />
  <metadata
     id="metadata984">
    <rdf:RDF>
      <cc:Work
         rdf:about="">
        <dc:format>image/svg+xml</dc:format>
        <dc:type
           rdf:resource="http://purl.org/dc/dcmitype/StillImage" />
        <dc:title />
      </cc:Work>
    </rdf:RDF>
  </metadata>
  <g
     inkscape:label="Layer 1"
     inkscape:groupmode="layer"
     id="layer1"
     transform="translate(-4.5123712,53.808242)">
    <path
       style="fill:none;stroke:#000000;stroke-width:0.89999998;stroke-linecap:round;stroke-linejoin:round;stroke-miterlimit:4;stroke-dasharray:none;stroke-opacity:1"
       d="m 23.389883,-34.451367 c -6.29105,3.845986 -13.6944993,15.403789 -6.634698,26.0759069 7.46997,11.292159 19.595503,-11.5721499 9.103422,-11.5721499 -10.492082,0 -2.550972,16.011215 8.486243,14.9666459 10.08104,-0.9540761 28.252974,-29.4179489 16.66638,-32.7461539 -4.240094,-1.217951 -13.493195,14.018439 -5.734093,14.025528 7.25994,0.0066 2.388486,-15.451143 -1.713053,-13.670853 -14.304087,6.208746 -7.36303,40.360084 6.210296,30.6942309 10.183492,-7.2518809 17.589666,-21.2927519 9.720605,-33.3277879 -6.013504,-9.197123 -26.451586,-0.579793 -36.105102,5.554633 z"
       id="path1023"
       inkscape:connector-curvature="0"
       sodipodi:nodetypes="cssssssssc" />
    <path
       style="fill:none;stroke:#000000;stroke-width:0.89999998;stroke-linecap:round;stroke-linejoin:round;stroke-miterlimit:4;stroke-dasharray:none;stroke-opacity:1"
       d="m 74.479419,-21.11426 c 0.874808,-23.526609 21.032768,7.997176 30.443331,4.908428 9.79786,-3.215866 5.95299,-26.576648 -4.89894,-26.742475 -13.5067,-0.206392 -22.220118,21.157021 -14.521805,26.742475 7.698312,5.585455 33.942555,-24.711401 33.067755,-5.246941 C 117.91931,-6.9804491 101.94839,-3.3423611 91.975587,-5.5426921 82.00277,-7.7430221 74.638158,-10.621501 74.479419,-21.11426 Z"
       id="path1025"
       inkscape:connector-curvature="0"
       sodipodi:nodetypes="csssssc" />
    <path
       style="fill:none;stroke:#000000;stroke-width:0.90000004;stroke-linecap:round;stroke-linejoin:round;stroke-miterlimit:4;stroke-dasharray:none;stroke-opacity:1"
       d="M 74.479421,29.685739 C 75.354228,6.1591299 95.512187,37.68292 104.92275,34.59417 114.72061,31.378302 110.87574,8.0175189 100.02381,7.8516919 86.51711,7.6452999 77.803693,29.008714 85.502005,34.59417 93.200319,40.17962 119.44456,9.8827659 118.56976,29.347227 117.91931,43.81955 101.94839,47.45764 91.975589,45.25731 82.002771,43.05698 74.63816,40.1785 74.479421,29.685739 Z"
       id="path1025-5"
       inkscape:connector-curvature="0"
       sodipodi:nodetypes="csssssc" />
    <path
       style="fill:none;stroke:#000000;stroke-width:0.9000001;stroke-linecap:round;stroke-linejoin:round;stroke-miterlimit:4;stroke-dasharray:none;stroke-opacity:1"
       d="m 85.85502,66.733026 c 0.111306,0.794481 0.102923,0.985935 -0.285921,1.671883 -3.594339,6.34073 -4.228383,13.970072 -0.0671,16.989261 7.698315,5.585452 33.942551,-24.7114 33.067751,-5.24694 C 117.91931,94.61955 101.94839,98.25764 91.975589,96.05731 82.002771,93.85698 74.63816,90.9785 74.479421,80.48574 c 0.874807,-23.52661 21.032766,7.99718 30.443329,4.90843 9.79786,-3.21587 5.95299,-26.576656 -4.89894,-26.74248 -2.639546,-0.04033 -5.096032,0.743103 -7.282744,2.071567 -0.643867,0.391159 -0.853963,0.457711 -1.770396,0.66147"
       id="path1025-5-2"
       inkscape:connector-curvature="0"
       sodipodi:nodetypes="csssscsssc" />
    <path
       style="fill:none;stroke:#000000;stroke-width:0.7;stroke-linecap:round;stroke-linejoin:round;stroke-opacity:1;stroke-miterlimit:4;stroke-dasharray:0.7,1.4;stroke-dashoffset:0"
       d="m 61.615878,14.993441 c 10.338717,-3.03155 16.770149,-2.564416 25.308581,0.483097"
       id="path1104"
       inkscape:connector-curvature="0"
       sodipodi:nodetypes="cc" />
    <path
       style="fill:none;stroke:#000000;stroke-width:0.7;stroke-linecap:round;stroke-linejoin:round;stroke-opacity:1;stroke-miterlimit:4;stroke-dasharray:0.7,1.4;stroke-dashoffset:0"
       d="M 58.88144,9.8850348 C 73.102275,6.2469482 81.315662,6.611074 90.939905,11.184864"
       id="path1106"
       inkscape:connector-curvature="0"
       sodipodi:nodetypes="cc" />
    <path
       style="fill:none;stroke:#000000;stroke-width:0.89999998;stroke-linecap:round;stroke-linejoin:round;stroke-miterlimit:4;stroke-dasharray:none;stroke-dashoffset:0;stroke-opacity:1"
       d="m 62.422698,66.58421 c 0.237169,-0.664209 1.127123,-1.223928 2.046125,-1.449981 7.801716,-1.919042 13.423502,-1.607972 20.044491,0.447797 0.787785,0.244601 1.286169,0.694114 1.341706,1.151"
       id="path1104-7"
       inkscape:connector-curvature="0"
       sodipodi:nodetypes="cssc" />
    <path
       style="fill:none;stroke:#000000;stroke-width:0.89999998;stroke-linecap:round;stroke-linejoin:round;stroke-miterlimit:4;stroke-dasharray:none;stroke-dashoffset:0;stroke-opacity:1"
       d="m 59.294851,60.531778 c 0.60152,0.04413 0.714277,-0.01872 1.264187,-0.151387 12.190227,-2.940849 19.893274,-2.730504 28.275897,0.77552 0.695986,0.291095 1.26372,0.424228 2.135735,0.228816"
       id="path1106-0"
       inkscape:connector-curvature="0"
       sodipodi:nodetypes="cssc" />
    <path
       style="fill:none;stroke:#000000;stroke-width:0.90000004;stroke-linecap:round;stroke-linejoin:round;stroke-miterlimit:4;stroke-dasharray:none;stroke-opacity:1"
       d="m 23.389883,16.267575 c -6.29105,3.845987 -13.6944992,15.40379 -6.634698,26.075909 7.46997,11.292157 19.595504,-11.572151 9.103422,-11.572151 -10.492082,0 -2.550972,16.011216 8.486244,14.966647 10.081038,-0.954077 28.252974,-29.41795 16.66638,-32.746156 -4.240093,-1.217951 -13.493195,14.018439 -5.734092,14.025528 7.259939,0.0066 2.388486,-15.451143 -1.713053,-13.670853 -14.304088,6.208746 -7.363031,40.360085 6.210295,30.694232 C 59.957873,36.78885 67.364047,22.747978 59.494987,10.712942 53.481481,1.5158194 33.0434,10.133149 23.389883,16.267575 Z"
       id="path1023-3"
       inkscape:connector-curvature="0"
       sodipodi:nodetypes="cssssssssc" />
    <path
       style="fill:none;stroke:#000000;stroke-width:0.89999998;stroke-linecap:round;stroke-linejoin:round;stroke-miterlimit:4;stroke-dasharray:none;stroke-opacity:1"
       d="m 59.294851,60.531778 c -0.732011,-0.09125 -0.91596,-0.329434 -1.239157,-0.609949 -7.337913,-6.368862 -25.677061,1.495852 -34.665812,7.207845 -6.29105,3.845987 -13.6944996,15.40379 -6.634698,26.075911 7.46997,11.292155 19.595505,-11.572153 9.103422,-11.572153 -10.492082,0 -2.550972,16.011215 8.486245,14.966648 C 44.425888,95.646003 62.597824,67.182129 51.01123,63.853923 46.771137,62.635972 37.518036,77.872362 45.277138,77.879451 52.537077,77.886051 47.665624,62.428308 43.564085,64.208598 29.259998,70.417344 36.20106,104.56868 49.77438,94.902831 57.798486,89.188694 64.098242,79.259483 62.559479,69.417763 62.377886,68.256316 62.096012,67.467208 62.422698,66.58421"
       id="path1023-3-6"
       inkscape:connector-curvature="0"
       sodipodi:nodetypes="cscssssssssc" />
    <path
       style="fill:none;stroke:#000000;stroke-width:0.9000001;stroke-linecap:round;stroke-linejoin:round;stroke-miterlimit:4;stroke-dasharray:none;stroke-opacity:1"
       d="m -41.131414,66.399773 c -4.669168,6.641207 -5.946691,15.648587 -1.335231,18.994397 7.698314,5.585452 33.942555,-24.711401 33.067755,-5.246941 -0.65045,14.472319 -16.62137,18.110409 -26.59417,15.910081 -9.972818,-2.200331 -17.337429,-5.078812 -17.496169,-15.571571 0.874808,-23.52661 21.032767,7.99718 30.443329,4.908431 9.79786,-3.215871 5.95299,-26.576657 -4.89894,-26.742481 -3.416745,-0.05221 -6.52676,1.27588 -9.141963,3.379686"
       id="path1025-5-2-6"
       inkscape:connector-curvature="0"
       sodipodi:nodetypes="cssscssc" />
    <path
       style="fill:none;stroke:#000000;stroke-width:0.69999999;stroke-linecap:round;stroke-linejoin:round;stroke-miterlimit:4;stroke-dasharray:none;stroke-dashoffset:0;stroke-opacity:1"
       d="m -66.352773,65.906013 c 10.338718,-3.03155 16.770149,-2.564416 25.308584,0.483097"
       id="path1104-7-2"
       inkscape:connector-curvature="0"
       sodipodi:nodetypes="cc" />
    <path
       style="fill:none;stroke:#000000;stroke-width:0.69999999;stroke-linecap:round;stroke-linejoin:round;stroke-miterlimit:4;stroke-dasharray:none;stroke-dashoffset:0;stroke-opacity:1"
       d="m -69.08721,60.797607 c 14.220836,-3.638087 22.434222,-3.273961 32.058465,1.299829"
       id="path1106-0-9"
       inkscape:connector-curvature="0"
       sodipodi:nodetypes="cc" />
    <path
       style="fill:none;stroke:#000000;stroke-width:0.9000001;stroke-linecap:round;stroke-linejoin:round;stroke-miterlimit:4;stroke-dasharray:none;stroke-opacity:1"
       d="m -69.009129,60.847611 c -6.608111,-7.991621 -26.18498,0.318485 -35.569641,6.282062 -6.29105,3.845987 -13.6945,15.40379 -6.6347,26.07591 7.46997,11.292157 19.595509,-11.572152 9.10343,-11.572152 -10.49209,0 -2.55098,16.011215 8.486241,14.966648 10.081036,-0.954077 28.252974,-29.417951 16.666378,-32.746157 -4.240091,-1.217951 -13.493193,14.018439 -5.734092,14.025528 7.259939,0.0066 2.388486,-15.451143 -1.713053,-13.670853 -14.304086,6.208746 -7.363026,40.360083 6.210297,30.694233 8.97105,-6.388476 15.786746,-18.045593 11.902768,-28.95868"
       id="path1023-3-6-1"
       inkscape:connector-curvature="0"
       sodipodi:nodetypes="ccsssssssc" />
  </g>
</svg>
