<?xml version="1.0" encoding="UTF-8" standalone="no"?>
<!-- Created with Inkscape (http://www.inkscape.org/) -->

<svg
   xmlns:dc="http://purl.org/dc/elements/1.1/"
   xmlns:cc="http://creativecommons.org/ns#"
   xmlns:rdf="http://www.w3.org/1999/02/22-rdf-syntax-ns#"
   xmlns:svg="http://www.w3.org/2000/svg"
   xmlns="http://www.w3.org/2000/svg"
   xmlns:sodipodi="http://sodipodi.sourceforge.net/DTD/sodipodi-0.dtd"
   xmlns:inkscape="http://www.inkscape.org/namespaces/inkscape"
   width="228.62491mm"
   height="58.252808mm"
   viewBox="0 0 228.62491 58.252808"
   version="1.1"
   id="svg5356"
   inkscape:version="0.92.5 (2060ec1f9f, 2020-04-08)"
   sodipodi:docname="sol06.svg">
  <defs
     id="defs5350" />
  <sodipodi:namedview
     id="base"
     pagecolor="#ffffff"
     bordercolor="#666666"
     borderopacity="1.0"
     inkscape:pageopacity="0.0"
     inkscape:pageshadow="2"
     inkscape:zoom="0.35"
     inkscape:cx="702.23521"
     inkscape:cy="-77.115333"
     inkscape:document-units="mm"
     inkscape:current-layer="layer1"
     showgrid="false"
     inkscape:window-width="1920"
     inkscape:window-height="1057"
     inkscape:window-x="1920"
     inkscape:window-y="23"
     inkscape:window-maximized="1"
     fit-margin-top="0"
     fit-margin-left="0"
     fit-margin-right="0"
     fit-margin-bottom="0" />
  <metadata
     id="metadata5353">
    <rdf:RDF>
      <cc:Work
         rdf:about="">
        <dc:format>image/svg+xml</dc:format>
        <dc:type
           rdf:resource="http://purl.org/dc/dcmitype/StillImage" />
        <dc:title></dc:title>
      </cc:Work>
    </rdf:RDF>
  </metadata>
  <g
     inkscape:label="Layer 1"
     inkscape:groupmode="layer"
     id="layer1"
     transform="translate(143.4664,-119.314)">
    <g
       id="g1876"
       transform="matrix(1.2596847,0,0,1.2596847,-159.66754,134.77966)">
      <rect
         y="-12.761205"
         x="11.973881"
         height="47.243034"
         width="54.764187"
         id="rect1804"
         style="opacity:1;fill:#fa83ff;fill-opacity:1;stroke:none;stroke-width:0.4564251;stroke-linecap:round;stroke-linejoin:round;stroke-miterlimit:4;stroke-dasharray:0.9128502, 1.82570041;stroke-dashoffset:0;stroke-opacity:1;paint-order:fill markers stroke" />
      <rect
         y="-12.761205"
         x="81.653137"
         height="47.243034"
         width="54.764187"
         id="rect1804-1"
         style="opacity:1;fill:#fa83ff;fill-opacity:1;stroke:none;stroke-width:0.4564251;stroke-linecap:round;stroke-linejoin:round;stroke-miterlimit:4;stroke-dasharray:0.91285022, 1.82570043;stroke-dashoffset:0;stroke-opacity:1;paint-order:fill markers stroke" />
      <rect
         y="-12.761205"
         x="151.3324"
         height="47.243034"
         width="54.764187"
         id="rect1804-8"
         style="opacity:1;fill:#fa83ff;fill-opacity:1;stroke:none;stroke-width:0.4564251;stroke-linecap:round;stroke-linejoin:round;stroke-miterlimit:4;stroke-dasharray:0.91285022, 1.82570043;stroke-dashoffset:0;stroke-opacity:1;paint-order:fill markers stroke" />
      <rect
         y="-12.761205"
         x="221.01166"
         height="47.243034"
         width="54.764187"
         id="rect1804-7"
         style="opacity:1;fill:#fa83ff;fill-opacity:1;stroke:none;stroke-width:0.4564251;stroke-linecap:round;stroke-linejoin:round;stroke-miterlimit:4;stroke-dasharray:0.91285022, 1.82570043;stroke-dashoffset:0;stroke-opacity:1;paint-order:fill markers stroke" />
      <rect
         y="45.610458"
         x="11.973881"
         height="47.243034"
         width="54.764187"
         id="rect1804-2"
         style="opacity:1;fill:#fa83ff;fill-opacity:1;stroke:none;stroke-width:0.45642513;stroke-linecap:round;stroke-linejoin:round;stroke-miterlimit:4;stroke-dasharray:0.91285021, 1.82570043;stroke-dashoffset:0;stroke-opacity:1;paint-order:fill markers stroke" />
      <rect
         y="45.610458"
         x="81.653137"
         height="47.243034"
         width="54.764187"
         id="rect1804-1-0"
         style="opacity:1;fill:#fa83ff;fill-opacity:1;stroke:none;stroke-width:0.45642513;stroke-linecap:round;stroke-linejoin:round;stroke-miterlimit:4;stroke-dasharray:0.91285023, 1.82570045;stroke-dashoffset:0;stroke-opacity:1;paint-order:fill markers stroke" />
      <rect
         y="45.610458"
         x="151.33238"
         height="47.243034"
         width="54.764187"
         id="rect1804-8-2"
         style="opacity:1;fill:#fa83ff;fill-opacity:1;stroke:none;stroke-width:0.45642513;stroke-linecap:round;stroke-linejoin:round;stroke-miterlimit:4;stroke-dasharray:0.91285023, 1.82570045;stroke-dashoffset:0;stroke-opacity:1;paint-order:fill markers stroke" />
      <rect
         y="45.610458"
         x="221.01164"
         height="47.243034"
         width="54.764187"
         id="rect1804-7-3"
         style="opacity:1;fill:#fa83ff;fill-opacity:1;stroke:none;stroke-width:0.45642513;stroke-linecap:round;stroke-linejoin:round;stroke-miterlimit:4;stroke-dasharray:0.91285023, 1.82570045;stroke-dashoffset:0;stroke-opacity:1;paint-order:fill markers stroke" />
    </g>
    <g
       id="g1876-3"
       transform="matrix(1.2596847,0,0,1.2596847,-159.66755,283.03688)">
      <rect
         y="-12.761205"
         x="11.973881"
         height="47.243034"
         width="54.764187"
         id="rect1804-6"
         style="opacity:1;fill:#fa83ff;fill-opacity:1;stroke:none;stroke-width:0.4564251;stroke-linecap:round;stroke-linejoin:round;stroke-miterlimit:4;stroke-dasharray:0.9128502, 1.82570041;stroke-dashoffset:0;stroke-opacity:1;paint-order:fill markers stroke" />
      <rect
         y="-12.761205"
         x="81.653137"
         height="47.243034"
         width="54.764187"
         id="rect1804-1-7"
         style="opacity:1;fill:#fa83ff;fill-opacity:1;stroke:none;stroke-width:0.4564251;stroke-linecap:round;stroke-linejoin:round;stroke-miterlimit:4;stroke-dasharray:0.91285022, 1.82570043;stroke-dashoffset:0;stroke-opacity:1;paint-order:fill markers stroke" />
      <rect
         y="-12.761205"
         x="151.3324"
         height="47.243034"
         width="54.764187"
         id="rect1804-8-5"
         style="opacity:1;fill:#fa83ff;fill-opacity:1;stroke:none;stroke-width:0.4564251;stroke-linecap:round;stroke-linejoin:round;stroke-miterlimit:4;stroke-dasharray:0.91285022, 1.82570043;stroke-dashoffset:0;stroke-opacity:1;paint-order:fill markers stroke" />
      <rect
         y="-12.761205"
         x="221.01166"
         height="47.243034"
         width="54.764187"
         id="rect1804-7-35"
         style="opacity:1;fill:#fa83ff;fill-opacity:1;stroke:none;stroke-width:0.4564251;stroke-linecap:round;stroke-linejoin:round;stroke-miterlimit:4;stroke-dasharray:0.91285022, 1.82570043;stroke-dashoffset:0;stroke-opacity:1;paint-order:fill markers stroke" />
      <rect
         y="45.610458"
         x="11.973881"
         height="47.243034"
         width="54.764187"
         id="rect1804-2-62"
         style="opacity:1;fill:#fa83ff;fill-opacity:1;stroke:none;stroke-width:0.45642513;stroke-linecap:round;stroke-linejoin:round;stroke-miterlimit:4;stroke-dasharray:0.91285021, 1.82570043;stroke-dashoffset:0;stroke-opacity:1;paint-order:fill markers stroke" />
      <rect
         y="45.610458"
         x="81.653137"
         height="47.243034"
         width="54.764187"
         id="rect1804-1-0-9"
         style="opacity:1;fill:#fa83ff;fill-opacity:1;stroke:none;stroke-width:0.45642513;stroke-linecap:round;stroke-linejoin:round;stroke-miterlimit:4;stroke-dasharray:0.91285023, 1.82570045;stroke-dashoffset:0;stroke-opacity:1;paint-order:fill markers stroke" />
      <rect
         y="45.610458"
         x="151.33238"
         height="47.243034"
         width="54.764187"
         id="rect1804-8-2-1"
         style="opacity:1;fill:#fa83ff;fill-opacity:1;stroke:none;stroke-width:0.45642513;stroke-linecap:round;stroke-linejoin:round;stroke-miterlimit:4;stroke-dasharray:0.91285023, 1.82570045;stroke-dashoffset:0;stroke-opacity:1;paint-order:fill markers stroke" />
      <rect
         y="45.610458"
         x="221.01164"
         height="47.243034"
         width="54.764187"
         id="rect1804-7-3-2"
         style="opacity:1;fill:#fa83ff;fill-opacity:1;stroke:none;stroke-width:0.45642513;stroke-linecap:round;stroke-linejoin:round;stroke-miterlimit:4;stroke-dasharray:0.91285023, 1.82570045;stroke-dashoffset:0;stroke-opacity:1;paint-order:fill markers stroke" />
    </g>
    <path
       style="opacity:1;fill:#c5c5c5;fill-opacity:1;stroke:none;stroke-width:0.23937351;stroke-linecap:round;stroke-linejoin:round;stroke-miterlimit:4;stroke-dasharray:none;stroke-dashoffset:0;stroke-opacity:1;paint-order:markers stroke fill"
       d="m 1.8017707,52.988625 -1.38742997,4.383457 -1.38738,-4.383457 -4.38349003,-1.38742 4.38349003,-1.38742 1.38738,-4.38346 1.38742997,4.38346 4.38349,1.38742 z"
       id="path1353-7-5-5-4-4"
       inkscape:connector-curvature="0" />
    <path
       style="opacity:1;fill:#c5c5c5;fill-opacity:1;stroke:none;stroke-width:0.15400961;stroke-linecap:round;stroke-linejoin:round;stroke-miterlimit:4;stroke-dasharray:none;stroke-dashoffset:0;stroke-opacity:1;paint-order:markers stroke fill"
       d="m 18.425621,74.196135 -0.89265,2.820257 -0.89262,-2.820257 -2.82028,-0.892649 2.82028,-0.892646 0.89262,-2.820258 0.89265,2.820258 2.82028,0.892646 z"
       id="path1353-7-5-5-4-4-5-0"
       inkscape:connector-curvature="0" />
    <path
       inkscape:connector-curvature="0"
       style="opacity:1;fill:#c5c5c5;fill-opacity:1;stroke:none;stroke-width:1.53214335;stroke-linecap:round;stroke-linejoin:round;stroke-miterlimit:4;stroke-dasharray:none;stroke-dashoffset:0;stroke-opacity:1;paint-order:fill markers stroke"
       d="m 27.586331,73.346944 a 2.364714,2.364714 0 0 1 -2.36473,2.364711 2.364714,2.364714 0 0 1 -2.36471,-2.364711 2.364714,2.364714 0 0 1 2.36471,-2.364711 2.364714,2.364714 0 0 1 2.36473,2.364711 z"
       id="path1563-3-5-8-4-0" />
    <path
       style="fill:none;stroke:#000000;stroke-width:0.90000004;stroke-linecap:round;stroke-linejoin:round;stroke-miterlimit:4;stroke-dasharray:none;stroke-opacity:1"
       d="m -138.45222,274.77387 c -17.96539,1.63155 -19.17111,21.61817 -9.76641,25.69707 9.40469,4.0789 19.65337,-1.4956 33.15755,1.0877 13.50419,2.58331 18.206529,13.86826 8.92242,21.48223 -9.28411,7.61394 -17.24195,-1.9035 -18.44766,-15.09194 -1.20573,-13.18844 12.29843,-24.20149 19.53282,-22.43396 7.234379,1.76751 13.865879,13.46037 -1.8086,25.42515 -15.67449,11.96475 -27.37008,0.54385 -29.29924,-5.57451 -1.92917,-6.11834 -1.68802,-24.33743 17.60364,-34.12679 19.291699,-9.78937 38.70393,6.52623 33.88102,17.94716 -3.255481,7.07009 -15.79129,-4.46232 -5.305221,-11.96477 12.5481,-8.97774 22.139312,8.9643 15.312771,20.39449 -7.957799,13.32442 -20.738531,8.97359 -34.96615,-4.07889 -10.09515,-9.26134 -17.72424,-19.3068 -28.81694,-18.76294 z"
       id="path1800-5"
       inkscape:connector-curvature="0"
       sodipodi:nodetypes="csssscssscsssc" />
    <path
       style="fill:none;stroke:#000000;stroke-width:0.69999999;stroke-linecap:round;stroke-linejoin:round;stroke-miterlimit:4;stroke-dasharray:none;stroke-opacity:1"
       d="m -78.6,297.39104 5.616139,-3.81008 0.87041,6.73053"
       id="path4742-6-2-0-52-4"
       inkscape:connector-curvature="0" />
    <path
       style="fill:none;stroke:#000000;stroke-width:0.69999999;stroke-linecap:round;stroke-linejoin:round;stroke-miterlimit:4;stroke-dasharray:none;stroke-opacity:1"
       d="m -131.21332,287.84832 -4.92259,4.6718 -1.95221,-6.49973"
       id="path4742-6-2-0-547-9"
       inkscape:connector-curvature="0" />
    <path
       style="fill:none;stroke:#000000;stroke-width:0.69999999;stroke-linecap:round;stroke-linejoin:round;stroke-miterlimit:4;stroke-dasharray:none;stroke-opacity:1"
       d="m -109.34111,322.01304 6.26225,-2.6157 -0.48701,6.7691"
       id="path4742-6-2-0-4-2"
       inkscape:connector-curvature="0" />
    <path
       style="fill:none;stroke:#000000;stroke-width:0.9000001;stroke-linecap:round;stroke-linejoin:round;stroke-miterlimit:4;stroke-dasharray:none;stroke-opacity:1"
       d="m -24.108929,301.65218 c -2.79889,5.30382 10.62944,13.77472 1.34533,21.38869 -9.28411,7.61394 -17.24195,-1.9035 -18.44766,-15.09194 -1.20573,-13.18844 12.29843,-24.20149 19.53282,-22.43396 7.23438,1.76751 13.8658797,13.46037 -1.8086,25.42515 -15.67449,11.96475 -27.37008,0.54385 -29.29924,-5.57451 -1.929172,-6.11834 -1.68802,-24.33743 17.60364,-34.12679 19.2917,-9.78937 38.7039297,6.52623 33.8810197,17.94716 -3.25548,7.07009 -15.7912897,-4.46232 -5.30522,-11.96477 12.5481,-8.97774 22.1393103,8.9643 15.31277,20.39449 -7.86883997,12.26991 -28.9085397,-3.4032 -32.8148597,4.03648 z"
       id="path1800-5-5"
       inkscape:connector-curvature="0"
       sodipodi:nodetypes="csscssscscc" />
    <path
       style="fill:none;stroke:#000000;stroke-width:0.69999999;stroke-linecap:round;stroke-linejoin:round;stroke-miterlimit:4;stroke-dasharray:none;stroke-opacity:1"
       d="m 4.7750607,297.39104 5.6161403,-3.81008 0.87041,6.73053"
       id="path4742-6-2-0-52-4-7"
       inkscape:connector-curvature="0" />
    <path
       style="fill:none;stroke:#000000;stroke-width:0.69999999;stroke-linecap:round;stroke-linejoin:round;stroke-miterlimit:4;stroke-dasharray:none;stroke-opacity:1"
       d="m -47.838259,287.84832 -4.92259,4.6718 -1.95221,-6.49973"
       id="path4742-6-2-0-547-9-4"
       inkscape:connector-curvature="0" />
    <path
       style="fill:none;stroke:#000000;stroke-width:0.69999999;stroke-linecap:round;stroke-linejoin:round;stroke-miterlimit:4;stroke-dasharray:none;stroke-opacity:1"
       d="m -25.966049,322.01304 6.26225,-2.6157 -0.48701,6.7691"
       id="path4742-6-2-0-4-2-9"
       inkscape:connector-curvature="0" />
    <path
       style="fill:none;stroke:#000000;stroke-width:0.69999999;stroke-linecap:round;stroke-linejoin:round;stroke-miterlimit:4;stroke-dasharray:none;stroke-opacity:1"
       d="m -16.718819,292.46126 -2.85403,-6.15728 6.78279,0.22692"
       id="path4742-6-2-0-4-2-94"
       inkscape:connector-curvature="0" />
    <path
       style="fill:none;stroke:#000000;stroke-width:0.9000001;stroke-linecap:round;stroke-linejoin:round;stroke-miterlimit:4;stroke-dasharray:none;stroke-opacity:1"
       d="m 69.619711,304.95947 c -2.79889,5.30382 3.68412,10.46743 -5.59999,18.0814 -9.2841,7.61394 -17.24194,-1.9035 -18.44765,-15.09194 -1.20573,-13.18844 12.29843,-24.20149 19.53282,-22.43396 7.23438,1.76751 13.86588,13.46037 -1.8086,25.42515 -15.67449,11.96475 -27.37008,0.54385 -29.29924,-5.57451 -1.92917,-6.11834 -1.68802,-24.33743 17.60364,-34.12679 19.2917,-9.78937 38.70393,6.52623 33.88102,17.94716 -3.25548,7.07009 -15.7913,-4.46232 -5.30523,-11.96477 12.5481,-8.97774 22.139319,8.9643 15.31278,20.39449 -7.86884,12.26991 -21.96323,-0.0959 -25.86955,7.34377 z"
       id="path1800-5-5-5"
       inkscape:connector-curvature="0"
       sodipodi:nodetypes="csscssscscc" />
    <path
       style="fill:none;stroke:#000000;stroke-width:0.69999999;stroke-linecap:round;stroke-linejoin:round;stroke-miterlimit:4;stroke-dasharray:none;stroke-opacity:1"
       d="m 91.558391,297.39104 5.61614,-3.81008 0.87041,6.73053"
       id="path4742-6-2-0-52-4-7-9"
       inkscape:connector-curvature="0"
       sodipodi:nodetypes="ccc" />
    <path
       style="fill:none;stroke:#000000;stroke-width:0.69999999;stroke-linecap:round;stroke-linejoin:round;stroke-miterlimit:4;stroke-dasharray:none;stroke-opacity:1"
       d="m 38.945071,287.84832 -4.92259,4.6718 -1.95221,-6.49973"
       id="path4742-6-2-0-547-9-4-3"
       inkscape:connector-curvature="0"
       sodipodi:nodetypes="ccc" />
    <path
       style="fill:none;stroke:#000000;stroke-width:0.69999999;stroke-linecap:round;stroke-linejoin:round;stroke-miterlimit:4;stroke-dasharray:none;stroke-opacity:1"
       d="m 60.817281,322.01304 6.26225,-2.6157 -0.48701,6.7691"
       id="path4742-6-2-0-4-2-9-5"
       inkscape:connector-curvature="0"
       sodipodi:nodetypes="ccc" />
    <path
       style="fill:none;stroke:#000000;stroke-width:0.69999999;stroke-linecap:round;stroke-linejoin:round;stroke-miterlimit:4;stroke-dasharray:none;stroke-opacity:1"
       d="m 70.064511,292.46126 -2.85403,-6.15728 6.78278,0.22692"
       id="path4742-6-2-0-4-2-94-7"
       inkscape:connector-curvature="0"
       sodipodi:nodetypes="ccc" />
    <path
       style="opacity:1;fill:#c5c5c5;fill-opacity:1;stroke:none;stroke-width:0.15400961;stroke-linecap:round;stroke-linejoin:round;stroke-miterlimit:4;stroke-dasharray:none;stroke-dashoffset:0;stroke-opacity:1;paint-order:markers stroke fill"
       d="m 70.800151,305.06355 -0.89265,2.82026 -0.89262,-2.82026 -2.82028,-0.89265 2.82028,-0.89265 0.89262,-2.82025 0.89265,2.82025 2.82028,0.89265 z"
       id="path1353-7-5-5-4-4-5-6-1-0"
       inkscape:connector-curvature="0" />
    <path
       style="fill:none;stroke:#000000;stroke-width:0.9000001;stroke-linecap:round;stroke-linejoin:round;stroke-miterlimit:4;stroke-dasharray:none;stroke-opacity:1"
       d="m 150.08052,324.29764 c -12.00695,0.007 -17.24195,-3.16027 -18.44765,-16.34871 -1.20574,-13.18844 9.45414,-17.12389 16.68854,-15.35636 7.23437,1.76751 8.90495,11.74058 1.03566,18.34755 -15.1021,12.67958 -27.37006,0.54385 -29.29922,-5.57451 -1.92918,-6.11834 -1.68804,-24.33744 17.60363,-34.12679 7.36309,-3.73632 19.63848,-3.03639 24.44395,0.43163 7.78516,5.61839 4.69577,18.85359 -2.66761,17.31709 -5.92457,-1.43516 -5.8439,-9.23843 6.79945,-11.76633 15.45852,-3.09076 22.13933,17.6294 15.31279,29.05959 -9.38059,16.02005 -17.74735,17.88103 -31.46954,18.01684 z"
       id="path1800-5-5-5-8"
       inkscape:connector-curvature="0"
       sodipodi:nodetypes="cscsssscscc" />
    <path
       style="fill:none;stroke:#000000;stroke-width:0.69999999;stroke-linecap:round;stroke-linejoin:round;stroke-miterlimit:4;stroke-dasharray:none;stroke-opacity:1"
       d="m 180.38814,291.87672 1.39864,-6.64091 5.29807,4.24121"
       id="path4742-6-2-0-52-4-7-9-1"
       inkscape:connector-curvature="0"
       sodipodi:nodetypes="ccc" />
    <path
       style="fill:none;stroke:#000000;stroke-width:0.69999999;stroke-linecap:round;stroke-linejoin:round;stroke-miterlimit:4;stroke-dasharray:none;stroke-opacity:1"
       d="m 125.00585,287.84832 -4.92257,4.6718 -1.95223,-6.49973"
       id="path4742-6-2-0-547-9-4-3-9"
       inkscape:connector-curvature="0"
       sodipodi:nodetypes="ccc" />
    <path
       style="fill:none;stroke:#000000;stroke-width:0.69999999;stroke-linecap:round;stroke-linejoin:round;stroke-miterlimit:4;stroke-dasharray:none;stroke-opacity:1"
       d="m 150.65802,296.73504 -5.03695,-4.54826 6.33013,-2.44688"
       id="path4742-6-2-0-4-2-9-5-9"
       inkscape:connector-curvature="0"
       sodipodi:nodetypes="ccc" />
    <path
       style="fill:none;stroke:#000000;stroke-width:0.9000001;stroke-linecap:round;stroke-linejoin:round;stroke-miterlimit:4;stroke-dasharray:none;stroke-opacity:1"
       d="m -107.95947,342.69999 c 37.3675,3.34074 32.76057,36.50948 25.850119,47.96343 -6.910419,11.45394 -18.939699,10.26083 -24.314489,2.86348 -5.37474,-7.39733 -12.79708,-33.64598 0.63986,-33.76528 11.42836,-0.10149 13.820879,20.52167 3.83915,21.47615 -7.03696,-0.63077 -1.03009,-29.69768 10.621589,-19.20923 9.62074,9.11789 0,39.13434 -20.091439,36.39016 -8.66952,-1.18412 -19.19563,-11.69257 -19.19563,-17.65819 0,-5.96558 9.72578,-9.42564 11.26142,-0.1193 1.53566,9.30633 -3.45519,20.9989 -14.46067,15.74917 -11.00554,-5.24971 -21.68984,-55.33679 25.85009,-53.69039 z"
       id="path1047-3-2"
       inkscape:connector-curvature="0"
       sodipodi:nodetypes="csssccssssc" />
    <path
       style="fill:none;stroke:#000000;stroke-width:0.69999999;stroke-linecap:round;stroke-linejoin:round;stroke-miterlimit:4;stroke-dasharray:none;stroke-opacity:1"
       d="m -112.48194,338.71891 5.41116,4.09602 -6.09501,2.98471"
       id="path4742-6-2-0-56-5"
       inkscape:connector-curvature="0" />
    <path
       style="fill:none;stroke:#000000;stroke-width:0.9000001;stroke-linecap:round;stroke-linejoin:round;stroke-miterlimit:4;stroke-dasharray:none;stroke-opacity:1"
       d="m -19.840719,342.69999 c 37.36751,3.34074 32.76057,36.50948 25.8501197,47.96343 -6.91041997,11.45394 -15.29147,9.7931 -20.6662597,2.39577 -5.37474,-7.39735 -11.95518,-33.17827 1.48176,-33.29757 11.4283597,-0.10149 14.4008497,13.85954 13.66130973,23.15993 -2.07612003,22.37772 -20.36325973,2.99228 -12.95158973,-3.21312 7.9777497,-6.33839 10.4879697,13.32912 1.55614,16.89525 -3.76394,1.50281 -6.52426,1.65585 -12.38669,1.81502 -17.01115,0.46188 -26.21146,-3.55423 -24.99538,-14.7583 0.64372,-5.93077 7.76135,-9.61274 9.29699,-0.30641 1.53566,9.30634 -5.13899,16.22814 -8.66092,14.53311 -10.987221,-5.28796 -19.725411,-56.83351 27.81452,-55.18711 z"
       id="path1047-3-2-3"
       inkscape:connector-curvature="0"
       sodipodi:nodetypes="csssccssssscc" />
    <path
       style="fill:none;stroke:#000000;stroke-width:0.69999999;stroke-linecap:round;stroke-linejoin:round;stroke-miterlimit:4;stroke-dasharray:none;stroke-opacity:1"
       d="m -24.363189,338.71891 5.41116,4.09602 -6.09501,2.98471"
       id="path4742-6-2-0-56-5-4"
       inkscape:connector-curvature="0"
       sodipodi:nodetypes="ccc" />
    <path
       style="fill:none;stroke:#000000;stroke-width:0.69999999;stroke-linecap:round;stroke-linejoin:round;stroke-miterlimit:4;stroke-dasharray:none;stroke-opacity:1"
       d="m -24.537669,372.52144 3.65616,-5.71754 3.45645,5.84044"
       id="path4742-6-2-0-56-5-9"
       inkscape:connector-curvature="0" />
    <path
       style="fill:none;stroke:#000000;stroke-width:0.69999999;stroke-linecap:round;stroke-linejoin:round;stroke-miterlimit:4;stroke-dasharray:none;stroke-opacity:1"
       d="m -16.563479,379.1682 6.7456897,-0.74388 -2.3758397,6.35715"
       id="path4742-6-2-0-56-5-9-0"
       inkscape:connector-curvature="0" />
    <path
       style="fill:none;stroke:#000000;stroke-width:0.9000001;stroke-linecap:round;stroke-linejoin:round;stroke-miterlimit:4;stroke-dasharray:none;stroke-opacity:1"
       d="m 68.278031,342.69999 c 37.367509,3.34074 32.760569,36.50948 25.85012,47.96343 -6.91042,11.45394 -15.29147,9.7931 -20.66626,2.39577 -5.37474,-7.39735 -11.95518,-33.17827 1.48176,-33.29757 11.42836,-0.10149 14.40085,13.85954 13.66131,23.15993 -2.07612,22.37772 -24.71307,4.67609 -17.3014,-1.52934 7.97775,-6.33839 11.65727,12.39369 2.72544,15.95982 -6.79039,2.50545 -13.80518,1.72292 -21.64707,0.33359 -8.92123,-1.63243 -13.42857,-5.97204 -12.55449,-14.02522 0.64372,-5.93077 7.76135,-9.61274 9.29699,-0.30641 1.53566,9.30634 -5.13899,16.22814 -8.66092,14.53311 -10.98722,-5.28796 -19.72541,-56.83351 27.81452,-55.18711 z"
       id="path1047-3-2-3-2"
       inkscape:connector-curvature="0"
       sodipodi:nodetypes="csssccccssscc" />
    <path
       style="fill:none;stroke:#000000;stroke-width:0.69999999;stroke-linecap:round;stroke-linejoin:round;stroke-miterlimit:4;stroke-dasharray:none;stroke-opacity:1"
       d="m 63.755561,338.71891 5.41116,4.09602 -6.09501,2.98471"
       id="path4742-6-2-0-56-5-4-0"
       inkscape:connector-curvature="0"
       sodipodi:nodetypes="ccc" />
    <path
       style="fill:none;stroke:#000000;stroke-width:0.69999999;stroke-linecap:round;stroke-linejoin:round;stroke-miterlimit:4;stroke-dasharray:none;stroke-opacity:1"
       d="m 63.581081,372.52144 3.65616,-5.71754 3.45645,5.84044"
       id="path4742-6-2-0-56-5-9-1"
       inkscape:connector-curvature="0"
       sodipodi:nodetypes="ccc" />
    <path
       style="opacity:1;fill:#c5c5c5;fill-opacity:1;stroke:none;stroke-width:0.15400961;stroke-linecap:round;stroke-linejoin:round;stroke-miterlimit:4;stroke-dasharray:none;stroke-dashoffset:0;stroke-opacity:1;paint-order:markers stroke fill"
       d="m 71.034011,387.42934 -0.89265,2.82024 -0.89262,-2.82024 -2.82028,-0.89265 2.82028,-0.89266 0.89262,-2.82024 0.89265,2.82024 2.82028,0.89266 z"
       id="path1353-7-5-5-4-4-5-6-1-0-6"
       inkscape:connector-curvature="0" />
    <path
       style="fill:none;stroke:#000000;stroke-width:0.9000001;stroke-linecap:round;stroke-linejoin:round;stroke-miterlimit:4;stroke-dasharray:none;stroke-opacity:1"
       d="m 155.08717,342.69999 c 37.36751,3.34074 32.76058,36.50948 25.85011,47.96343 -6.91041,11.45394 -15.29146,9.7931 -20.66626,2.39577 -5.37472,-7.39735 -11.95517,-33.17827 1.48178,-33.29757 11.42836,-0.10149 14.40084,13.85954 13.66131,23.15993 -0.86995,9.37697 -10.09709,15.14385 -17.15194,15.0689 -9.78122,-0.10399 -17.88869,-9.10821 -16.14556,-14.4467 1.51233,-4.24498 9.32188,-2.79348 9.62742,0.50344 0.70456,7.6018 -1.01782,15.65088 -12.55294,13.63843 -8.92125,-1.63243 -13.42859,-5.97204 -12.55451,-14.02522 0.64373,-5.93077 7.76134,-9.61274 9.29698,-0.30641 1.53567,9.30634 -5.13897,16.22814 -8.66089,14.53311 -10.98722,-5.28796 -19.72543,-56.83351 27.8145,-55.18711 z"
       id="path1047-3-2-3-2-2"
       inkscape:connector-curvature="0"
       sodipodi:nodetypes="cssscscscssscc" />
    <path
       style="fill:none;stroke:#000000;stroke-width:0.69999999;stroke-linecap:round;stroke-linejoin:round;stroke-miterlimit:4;stroke-dasharray:none;stroke-opacity:1"
       d="m 150.5647,338.71891 5.41116,4.09602 -6.095,2.98471"
       id="path4742-6-2-0-56-5-4-0-1"
       inkscape:connector-curvature="0"
       sodipodi:nodetypes="ccc" />
    <path
       style="fill:none;stroke:#000000;stroke-width:0.69999999;stroke-linecap:round;stroke-linejoin:round;stroke-miterlimit:4;stroke-dasharray:none;stroke-opacity:1"
       d="m 150.39021,372.52144 3.65617,-5.71754 3.45647,5.84044"
       id="path4742-6-2-0-56-5-9-1-2"
       inkscape:connector-curvature="0"
       sodipodi:nodetypes="ccc" />
    <path
       style="fill:none;stroke:#000000;stroke-width:0.69999999;stroke-linecap:round;stroke-linejoin:round;stroke-miterlimit:4;stroke-dasharray:none;stroke-opacity:1"
       d="m 155.90267,388.9127 -5.14979,4.4201 -1.62515,-6.58913"
       id="path4742-6-2-0-56-5-9-1-2-7"
       inkscape:connector-curvature="0"
       sodipodi:nodetypes="ccc" />
    <path
       sodipodi:nodetypes="csssssc"
       inkscape:connector-curvature="0"
       id="path1025"
       d="m -143.0164,153.76709 c 1.26187,-33.93595 30.33872,11.53553 43.912981,7.08016 14.13293,-4.63872 8.586888,-38.33548 -7.066471,-38.57467 -19.48274,-0.29771 -32.05141,30.51794 -20.94697,38.57467 11.10442,8.05674 48.960429,-35.64495 47.69857,-7.56845 -0.938239,20.87561 -23.97549,26.12337 -38.36076,22.9495 -14.38529,-3.17386 -25.00837,-7.32593 -25.23735,-22.46121 z"
       style="fill:none;stroke:#000000;stroke-width:0.90000004;stroke-linecap:round;stroke-linejoin:round;stroke-miterlimit:4;stroke-dasharray:none;stroke-opacity:1" />
    <path
       style="fill:none;stroke:#000000;stroke-width:0.69999999;stroke-linecap:round;stroke-linejoin:round;stroke-miterlimit:4;stroke-dasharray:none;stroke-opacity:1"
       d="m -101.55554,126.68841 -5.13812,-4.43367 6.27341,-2.58882"
       id="path4742-6-2-0-52-4-2"
       inkscape:connector-curvature="0" />
    <path
       sodipodi:nodetypes="csssssc"
       inkscape:connector-curvature="0"
       id="path1025-2"
       d="m -53.454939,153.7671 c 1.26187,-33.93595 30.33872,11.53553 43.9129797,7.08016 14.13293,-4.63872 8.58689003,-38.33548 -7.0664697,-38.57468 -19.48274,-0.2977 -24.5422,20.4404 -13.43776,28.49713 11.10442,8.05674 41.45122,-25.5674 40.18936,2.50911 -0.9382403,20.8756 -23.97549,26.12336 -38.36076,22.94949 -14.38529,-3.17386 -25.00837,-7.32593 -25.23735,-22.46121 z"
       style="fill:none;stroke:#000000;stroke-width:0.9000001;stroke-linecap:round;stroke-linejoin:round;stroke-miterlimit:4;stroke-dasharray:none;stroke-opacity:1" />
    <path
       style="fill:none;stroke:#000000;stroke-width:0.69999999;stroke-linecap:round;stroke-linejoin:round;stroke-miterlimit:4;stroke-dasharray:none;stroke-opacity:1"
       d="m -11.994079,126.68842 -5.13812,-4.43367 6.27341,-2.58882"
       id="path4742-6-2-0-52-4-2-3"
       inkscape:connector-curvature="0" />
    <path
       style="fill:none;stroke:#000000;stroke-width:0.69999999;stroke-linecap:round;stroke-linejoin:round;stroke-miterlimit:4;stroke-dasharray:none;stroke-opacity:1"
       d="m -135.79965,136.97639 3.9893,5.49028 -6.69895,1.08712"
       id="path4742-6-2-0-52-4-2-0-7-9-28"
       inkscape:connector-curvature="0" />
    <path
       style="fill:none;stroke:#000000;stroke-width:0.69999999;stroke-linecap:round;stroke-linejoin:round;stroke-miterlimit:4;stroke-dasharray:none;stroke-opacity:1"
       d="m -44.696089,137.70136 3.9893,5.49028 -6.69895,1.08712"
       id="path4742-6-2-0-52-4-2-0-7-9-28-9"
       inkscape:connector-curvature="0" />
    <path
       style="opacity:1;fill:#c5c5c5;fill-opacity:1;stroke:none;stroke-width:0.15400961;stroke-linecap:round;stroke-linejoin:round;stroke-miterlimit:4;stroke-dasharray:none;stroke-dashoffset:0;stroke-opacity:1;paint-order:markers stroke fill"
       d="m -29.941969,151.22819 -0.89265,2.82026 -0.89262,-2.82026 -2.82028,-0.89264 2.82028,-0.89265 0.89262,-2.82026 0.89265,2.82026 2.82028,0.89265 z"
       id="path1353-7-5-5-4-4-5-0-7"
       inkscape:connector-curvature="0" />
    <path
       sodipodi:nodetypes="csssssc"
       inkscape:connector-curvature="0"
       id="path1025-2-3"
       d="m 31.561291,157.04116 c 3.95147,-15.68047 14.96666,-1.37415 28.19753,-6.7644 9.54926,-3.89038 30.19563,-26.82953 14.54227,-27.06873 -19.48274,-0.29771 -35.76752,8.74735 -24.66308,16.80409 11.10442,8.05673 34.52894,1.37336 35.04442,13.64087 0.87731,20.87825 -20.32726,25.74919 -34.71253,22.57532 -14.38529,-3.17386 -20.1558,-10.3208 -18.40861,-19.18715 z"
       style="fill:none;stroke:#000000;stroke-width:0.9000001;stroke-linecap:round;stroke-linejoin:round;stroke-miterlimit:4;stroke-dasharray:none;stroke-opacity:1" />
    <path
       style="fill:none;stroke:#000000;stroke-width:0.69999999;stroke-linecap:round;stroke-linejoin:round;stroke-miterlimit:4;stroke-dasharray:none;stroke-opacity:1"
       d="m 67.885491,126.8316 -6.35991,-2.36839 4.98031,-4.61023"
       id="path4742-6-2-0-52-4-2-3-6"
       inkscape:connector-curvature="0" />
  </g>
</svg>
